{
    "name": "Unity.Build.Android.DotsRuntime.EditorTests",
    "references": [
        "Unity.Build.Android.DotsRuntime"
    ],
    "optionalUnityReferences": [
        "TestAssemblies"
    ],
    "includePlatforms": [
        "Editor"
    ],
    "excludePlatforms": []
}
